…
**Question 3**

``` r
midpoint_stations <- met_merged %>%
  group_by(STATE) %>%
  summarize(
    mid_lat = mean(lat, na.rm = TRUE),
    mid_lon = mean(lon, na.rm = TRUE)
  )

print(midpoint_stations)
```

    ## # A tibble: 48 × 3
    ##    STATE mid_lat mid_lon
    ##    <chr>   <dbl>   <dbl>
    ##  1 AL       32.8   -86.7
    ##  2 AR       35.2   -92.7
    ##  3 AZ       33.9  -112. 
    ##  4 CA       36.5  -120. 
    ##  5 CO       39.1  -106. 
    ##  6 CT       41.5   -72.7
    ##  7 DE       39.2   -75.5
    ##  8 FL       28.3   -82.4
    ##  9 GA       32.6   -83.3
    ## 10 IA       41.9   -93.5
    ## # ℹ 38 more rows
…
``` r
closest_midpoint_station <- met_with_midpoints %>%
  group_by(STATE) %>%
  filter(dist_to_mid == min(dist_to_mid)) %>%
  slice(1)

print(closest_midpoint_station)
```

    ## # A tibble: 48 × 35
    ## # Groups:   STATE [48]
    ##    STATE USAFID  WBAN  year month   day  hour   min   lat    lon  elev wind.dir
    ##    <chr>  <int> <int> <int> <int> <int> <int> <int> <dbl>  <dbl> <int>    <int>
    ##  1 AL    722300 53864  2019     8    13     0    53  33.2  -86.8   179      220
    ##  2 AR    723429 53920  2019     8    13     0    53  35.3  -93.1   123       NA
    ##  3 AZ    723745   374  2019     8     1     0    15  34.3 -111.   1572       NA
    ##  4 CA    723890 93193  2019     8     1     0     0  36.8 -120.    100      300
    ##  5 CO    726396   422  2019     8     1     0    10  39.0 -106.   3438       40
    ##  6 CT    725027 54788  2019     8     1     0    53  41.5  -72.8    32       NA
    ##  7 DE    724088 13707  2019     8     1     0    18  39.1  -75.5     9       70
    ##  8 FL    722014 12818  2019     8     1     0    53  28.5  -82.5    23      150
    ##  9 GA    722175 13860  2019     8     8    16    56  32.6  -83.6    90       NA
    ## 10 IA    725466  4938  2019     8     1     0    15  41.7  -93.6   277       NA
    ## # ℹ 38 more rows
    ## # ℹ 23 more variables: wind.dir.qc <chr>, wind.type.code <chr>, wind.sp <dbl>,
    ## #   wind.sp.qc <chr>, ceiling.ht <int>, ceiling.ht.qc <int>,
    ## #   ceiling.ht.method <chr>, sky.cond <chr>, vis.dist <int>, vis.dist.qc <chr>,
    ## #   vis.var <chr>, vis.var.qc <chr>, temp <dbl>, temp.qc <chr>,
    ## #   dew.point <dbl>, dew.point.qc <chr>, atm.press <dbl>, atm.press.qc <int>,
    ## #   rh <dbl>, CTRY <chr>, mid_lat <dbl>, mid_lon <dbl>, dist_to_mid <dbl>

``` r
combined_stations <- bind_rows(closest_midpoint_station, representative_stations)

print(combined_stations)
```

    ## # A tibble: 72 × 39
    ## # Groups:   STATE [48]
    ##    STATE USAFID  WBAN  year month   day  hour   min   lat    lon  elev wind.dir
    ##    <chr>  <int> <int> <int> <int> <int> <int> <int> <dbl>  <dbl> <int>    <int>
    ##  1 AL    722300 53864  2019     8    13     0    53  33.2  -86.8   179      220
    ##  2 AR    723429 53920  2019     8    13     0    53  35.3  -93.1   123       NA
    ##  3 AZ    723745   374  2019     8     1     0    15  34.3 -111.   1572       NA
    ##  4 CA    723890 93193  2019     8     1     0     0  36.8 -120.    100      300
    ##  5 CO    726396   422  2019     8     1     0    10  39.0 -106.   3438       40
    ##  6 CT    725027 54788  2019     8     1     0    53  41.5  -72.8    32       NA
    ##  7 DE    724088 13707  2019     8     1     0    18  39.1  -75.5     9       70
    ##  8 FL    722014 12818  2019     8     1     0    53  28.5  -82.5    23      150
    ##  9 GA    722175 13860  2019     8     8    16    56  32.6  -83.6    90       NA
    ## 10 IA    725466  4938  2019     8     1     0    15  41.7  -93.6   277       NA
    ## # ℹ 62 more rows
    ## # ℹ 27 more variables: wind.dir.qc <chr>, wind.type.code <chr>, wind.sp <dbl>,
    ## #   wind.sp.qc <chr>, ceiling.ht <int>, ceiling.ht.qc <int>,
    ## #   ceiling.ht.method <chr>, sky.cond <chr>, vis.dist <int>, vis.dist.qc <chr>,
    ## #   vis.var <chr>, vis.var.qc <chr>, temp <dbl>, temp.qc <chr>,
    ## #   dew.point <dbl>, dew.point.qc <chr>, atm.press <dbl>, atm.press.qc <int>,
    ## #   rh <dbl>, CTRY <chr>, mid_lat <dbl>, mid_lon <dbl>, dist_to_mid <dbl>, …
…
